{
    {% if alias %}
    "alias": {
        "name": "{{ alias.name }}",
        "slug": "{{ alias.slug }}",
        "forum": "{{ alias.forum }}"
    },
    {% endif %}
    "profile": {
        {% if alias and alias.profile.avatar %}
        "avatar": "{{ alias.profile.avatar.url }}",
        {% elif profile.avatar %}
        "avatar": "{{ profile.avatar.url }}",
        {% endif %}
        {% if alias %}
        "signature": "{{ alias.profile.signature }}"
        {% else %}
        "signature": "{{ profile.signature }}"
        {% endif %}
    }
}
